Introduction to the taxa package
…
There can be any number of filters that resolve to TRUE/FALSE vectors, taxon ids, or edge list indexes. For example, below is a combination of a TRUE/FALSE vectors and taxon id filter:

filter_taxa(my_taxmap, startsWith(taxon_names, "t"), c("b", "r", "o"))

There are many options for filter_taxa that make it very flexible. For example, the supertaxa option can make all the supertaxa of selected taxa be preserved.

filter_taxa(my_taxmap, startsWith(taxon_names, "t"), supertaxa = TRUE)
#> <Taxmap>
#>   11 taxa: b. Mammalia, c. Plantae ... o. typhlops, r. tuberosum
#>   11 edges: NA->b, NA->c, b->d, b->e ... h->m, j->o, l->r
#>   3 data sets:
#>     info:
#>       # A tibble: 6 x 4
#>         taxon_id name  n_legs dangerous
#>         <chr>    <fct>  <dbl> <lgl>    
#>       1 m        tiger      4 TRUE     
#>       2 d        cat        4 FALSE    
#>       3 o        mole       4 FALSE    
#>       # ... with 3 more rows
…
Note how both the taxonomy and the associated data sets were filtered. The drop_obs option can be used to specify which non-target (i.e. not "info") data sets are filtered when taxa are removed.

Sampling

The functions sample_n_obs and sample_n_taxa are similar to filter_obs and filter_taxa, except taxa/observations are chosen randomly. All of the options of the “filter_” functions are available to the “sample_” functions

set.seed(1)
sample_n_taxa(my_taxmap, 3) # "3" here is a taxon index in the edge list
#> <Taxmap>
#>   3 taxa: g. Solanaceae, i. Felis, m. tigris
#>   3 edges: NA->g, NA->i, NA->m
#>   3 data sets:
#>     info:
#>       # A tibble: 4 x 4
#>         taxon_id name   n_legs dangerous
#>         <chr>    <fct>   <dbl> <lgl>    
#>       1 m        tiger       4 TRUE     
#>       2 i        cat         4 FALSE    
#>       3 g        tomato      0 FALSE    
#>       # ... with 1 more row
#>     phylopic_ids: a named vector of 'character' with 4 items
#>        m. e148eabb-f138-43[truncated] ... g. 63604565-0406-46[truncated]
#>     foods: a list of 4 items named by taxa:
#>        m, i, g, g
#>   1 functions:
#>     reaction
set.seed(1)
sample_n_taxa(my_taxmap, 3, supertaxa = TRUE)
#> <Taxmap>
#>   7 taxa: b. Mammalia, c. Plantae ... i. Felis, m. tigris
#>   7 edges: NA->b, NA->c, b->d, c->g, d->h, d->i, h->m
#>   3 data sets:
#>     info:
#>       # A tibble: 6 x 4
#>         taxon_id name  n_legs dangerous
#>         <chr>    <fct>  <dbl> <lgl>    
#>       1 m        tiger      4 TRUE     
#>       2 i        cat        4 FALSE    
#>       3 b        mole       4 FALSE    
#>       # ... with 3 more rows
…
Adding columns

Adding columns to tabular data sets is done using mutate_obs.

mutate_obs(my_taxmap, "info",
           new_col = "Im new",
           newer_col = paste0(new_col, "er!"))
#> <Taxmap>
#>   17 taxa: b. Mammalia, c. Plantae ... r. tuberosum
#>   17 edges: NA->b, NA->c, b->d, b->e ... k->p, l->q, l->r
#>   3 data sets:
#>     info:
#>       # A tibble: 6 x 6
#>         taxon_id name  n_legs dangerous new_col newer_col
#>         <chr>    <fct>  <dbl> <lgl>     <chr>   <chr>    
#>       1 m        tiger      4 TRUE      Im new  Im newer!
#>       2 n        cat        4 FALSE     Im new  Im newer!
#>       3 o        mole       4 FALSE     Im new  Im newer!
#>       # ... with 3 more rows
…
Note how you can use newly created columns in the same call.

Subsetting columns

Subsetting columns in tabular data sets is done using select_obs.

# Selecting a column by name
select_obs(my_taxmap, "info", dangerous)
#> <Taxmap>
#>   17 taxa: b. Mammalia, c. Plantae ... r. tuberosum
#>   17 edges: NA->b, NA->c, b->d, b->e ... k->p, l->q, l->r
#>   3 data sets:
#>     info:
#>       # A tibble: 6 x 2
#>         taxon_id dangerous
#>         <chr>    <lgl>    
#>       1 m        TRUE     
#>       2 n        FALSE    
#>       3 o        FALSE    
#>       # ... with 3 more rows
#>     phylopic_ids: a named vector of 'character' with 6 items
#>        m. e148eabb-f138-43[truncated] ... r. 63604565-0406-46[truncated]
#>     foods: a list of 6 items named by taxa:
#>        m, n, o, p, q, r
#>   1 functions:
#>     reaction

# Selecting a column by index
select_obs(my_taxmap, "info", 3)
#> <Taxmap>
#>   17 taxa: b. Mammalia, c. Plantae ... r. tuberosum
#>   17 edges: NA->b, NA->c, b->d, b->e ... k->p, l->q, l->r
#>   3 data sets:
#>     info:
#>       # A tibble: 6 x 2
#>         taxon_id n_legs
#>         <chr>     <dbl>
#>       1 m             4
#>       2 n             4
#>       3 o             4
#>       # ... with 3 more rows
#>     phylopic_ids: a named vector of 'character' with 6 items
#>        m. e148eabb-f138-43[truncated] ... r. 63604565-0406-46[truncated]
#>     foods: a list of 6 items named by taxa:
#>        m, n, o, p, q, r
#>   1 functions:
#>     reaction

# Selecting a column by regular expressions (i.e. TRUE/FALSE)
select_obs(my_taxmap, "info", matches("^dange"))
#> <Taxmap>
#>   17 taxa: b. Mammalia, c. Plantae ... r. tuberosum
#>   17 edges: NA->b, NA->c, b->d, b->e ... k->p, l->q, l->r
#>   3 data sets:
#>     info:
#>       # A tibble: 6 x 2
#>         taxon_id dangerous
#>         <chr>    <lgl>    
#>       1 m        TRUE     
#>       2 n        FALSE    
#>       3 o        FALSE    
#>       # ... with 3 more rows
…
Sorting

Sorting the edge list and observations is done using arrage_taxa and arrange_obs.

arrange_taxa(my_taxmap, taxon_names)
#> <Taxmap>
#>   17 taxa: d. Felidae, i. Felis ... r. tuberosum, o. typhlops
#>   17 edges: b->d, d->i, b->f, NA->b ... k->p, h->m, l->r, j->o
#>   3 data sets:
#>     info:
#>       # A tibble: 6 x 4
#>         taxon_id name  n_legs dangerous
#>         <chr>    <fct>  <dbl> <lgl>    
#>       1 m        tiger      4 TRUE     
#>       2 n        cat        4 FALSE    
#>       3 o        mole       4 FALSE    
#>       # ... with 3 more rows
#>     phylopic_ids: a named vector of 'character' with 6 items
#>        m. e148eabb-f138-43[truncated] ... r. 63604565-0406-46[truncated]
#>     foods: a list of 6 items named by taxa:
#>        m, n, o, p, q, r
#>   1 functions:
#>     reaction
arrange_obs(my_taxmap, "info", name)
#> <Taxmap>
#>   17 taxa: b. Mammalia, c. Plantae ... r. tuberosum
#>   17 edges: NA->b, NA->c, b->d, b->e ... k->p, l->q, l->r
#>   3 data sets:
#>     info:
#>       # A tibble: 6 x 4
#>         taxon_id name  n_legs dangerous
#>         <chr>    <fct>  <dbl> <lgl>    
#>       1 n        cat        4 FALSE    
#>       2 p        human      2 TRUE     
#>       3 o        mole       4 FALSE    
#>       # ... with 3 more rows
…
