Introduction to the taxa package
…
There can be any number of filters that resolve to TRUE/FALSE vectors, taxon ids, or edge list indexes.

filter_taxa(my_taxmap, startsWith(taxon_names, "t"), "r")

There are many options for filter_taxa that make it very flexible. For example, the supertaxa option can make all the supertaxa of selected taxa be preserved.

filter_taxa(my_taxmap, startsWith(taxon_names, "t"), supertaxa = TRUE)
#> <Taxmap>
#>   11 taxa: m. tigris ... g. Solanaceae, c. Plantae
#>   11 edges: h->m, j->o, l->r, d->h ... b->e, g->l, c->g, NA->c
#>   3 data sets:
#>     info:
#>       # A tibble: 6 x 4
#>           name n_legs dangerous taxon_id
#>         <fctr>  <dbl>     <lgl>    <chr>
#>       1  tiger      4      TRUE        m
#>       2    cat      4     FALSE        d
#>       3   mole      4     FALSE        o
#>       # ... with 3 more rows
…
Sampling

The functions sample_n_obs and sample_n_taxa are similar to filter_obs and filter_taxa, except taxa/observations are chosen randomly. All of the options of the “filter_” functions are available to the “sample_” functions

set.seed(1)
sample_n_taxa(my_taxmap, 3)
#> <Taxmap>
#>   3 taxa: g. Solanaceae, i. Felis, m. tigris
#>   3 edges: NA->g, NA->i, NA->m
#>   3 data sets:
#>     info:
#>       # A tibble: 4 x 4
#>           name n_legs dangerous taxon_id
#>         <fctr>  <dbl>     <lgl>    <chr>
#>       1  tiger      4      TRUE        m
#>       2    cat      4     FALSE        i
#>       3 tomato      0     FALSE        g
#>       # ... with 1 more rows
#>     phylopic_ids:  e148eabb-f138-43c6-b1e4-5cda2180485a ... 63604565-0406-460b-8cb8-1abe954b3f3a
#>     foods: a list with 4 items
#>   1 functions:
#>  reaction
set.seed(1)
sample_n_taxa(my_taxmap, 3, supertaxa = TRUE)
#> <Taxmap>
#>   7 taxa: g. Solanaceae, i. Felis ... b. Mammalia, h. Panthera
#>   7 edges: c->g, d->i, h->m, NA->c, b->d, NA->b, d->h
#>   3 data sets:
#>     info:
#>       # A tibble: 6 x 4
#>           name n_legs dangerous taxon_id
#>         <fctr>  <dbl>     <lgl>    <chr>
#>       1  tiger      4      TRUE        m
#>       2    cat      4     FALSE        i
#>       3   mole      4     FALSE        b
#>       # ... with 3 more rows
…
Adding columns

Adding columns to tabular datasets is done using mutate_obs.

mutate_obs(my_taxmap, "info",
           new_col = "Im new",
           newer_col = paste0(new_col, "er!"))
#> <Taxmap>
#>   17 taxa: b. Mammalia ... q. lycopersicum, r. tuberosum
#>   17 edges: NA->b, NA->c, b->d ... j->o, k->p, l->q, l->r
#>   3 data sets:
#>     info:
#>       # A tibble: 6 x 6
#>           name n_legs dangerous taxon_id new_col newer_col
#>         <fctr>  <dbl>     <lgl>    <chr>   <chr>     <chr>
#>       1  tiger      4      TRUE        m  Im new Im newer!
#>       2    cat      4     FALSE        n  Im new Im newer!
#>       3   mole      4     FALSE        o  Im new Im newer!
#>       # ... with 3 more rows
…
Subsetting columns

Subsetting columns in tabular datasets is done using select_obs.

# Selecting a column by name
select_obs(my_taxmap, "info", dangerous)
#> <Taxmap>
#>   17 taxa: b. Mammalia ... q. lycopersicum, r. tuberosum
#>   17 edges: NA->b, NA->c, b->d ... j->o, k->p, l->q, l->r
#>   3 data sets:
#>     info:
#>       # A tibble: 6 x 2
#>         taxon_id dangerous
#>            <chr>     <lgl>
#>       1        m      TRUE
#>       2        n     FALSE
#>       3        o     FALSE
#>       # ... with 3 more rows
#>     phylopic_ids:  e148eabb-f138-43c6-b1e4-5cda2180485a ... 63604565-0406-460b-8cb8-1abe954b3f3a
#>     foods: a list with 6 items
#>   1 functions:
#>  reaction

# Selecting a column by index
select_obs(my_taxmap, "info", 3)
#> <Taxmap>
#>   17 taxa: b. Mammalia ... q. lycopersicum, r. tuberosum
#>   17 edges: NA->b, NA->c, b->d ... j->o, k->p, l->q, l->r
#>   3 data sets:
#>     info:
#>       # A tibble: 6 x 2
#>         taxon_id dangerous
#>            <chr>     <lgl>
#>       1        m      TRUE
#>       2        n     FALSE
#>       3        o     FALSE
#>       # ... with 3 more rows
#>     phylopic_ids:  e148eabb-f138-43c6-b1e4-5cda2180485a ... 63604565-0406-460b-8cb8-1abe954b3f3a
#>     foods: a list with 6 items
#>   1 functions:
#>  reaction

# Selecting a column by regular expressions
select_obs(my_taxmap, "info", matches("^dange"))
#> <Taxmap>
#>   17 taxa: b. Mammalia ... q. lycopersicum, r. tuberosum
#>   17 edges: NA->b, NA->c, b->d ... j->o, k->p, l->q, l->r
#>   3 data sets:
#>     info:
#>       # A tibble: 6 x 2
#>         taxon_id dangerous
#>            <chr>     <lgl>
#>       1        m      TRUE
#>       2        n     FALSE
#>       3        o     FALSE
#>       # ... with 3 more rows
…
Sorting

Sorting the edge list and observations is done using arrage_taxa and arrange_obs.

arrange_taxa(my_taxmap, taxon_names)
#> <Taxmap>
#>   17 taxa: d. Felidae, i. Felis ... r. tuberosum, o. typhlops
#>   17 edges: b->d, d->i, b->f, NA->b ... k->p, h->m, l->r, j->o
#>   3 data sets:
#>     info:
#>       # A tibble: 6 x 4
#>           name n_legs dangerous taxon_id
#>         <fctr>  <dbl>     <lgl>    <chr>
#>       1  tiger      4      TRUE        m
#>       2    cat      4     FALSE        n
#>       3   mole      4     FALSE        o
#>       # ... with 3 more rows
#>     phylopic_ids:  e148eabb-f138-43c6-b1e4-5cda2180485a ... 63604565-0406-460b-8cb8-1abe954b3f3a
#>     foods: a list with 6 items
#>   1 functions:
#>  reaction
arrange_obs(my_taxmap, "info", name)
#> <Taxmap>
#>   17 taxa: b. Mammalia ... q. lycopersicum, r. tuberosum
#>   17 edges: NA->b, NA->c, b->d ... j->o, k->p, l->q, l->r
#>   3 data sets:
#>     info:
#>       # A tibble: 6 x 4
#>           name n_legs dangerous taxon_id
#>         <fctr>  <dbl>     <lgl>    <chr>
#>       1    cat      4     FALSE        n
#>       2  human      2      TRUE        p
#>       3   mole      4     FALSE        o
#>       # ... with 3 more rows
…
